{
  "project_info": {
    "project_number": "1094984206211",
    "firebase_url": "https://healthcarepakistan-ee8f1.firebaseio.com",
    "project_id": "healthcarepakistan-ee8f1",
    "storage_bucket": "healthcarepakistan-ee8f1.appspot.com"
  },
  "client": [
    {
      "client_info": {
        "mobilesdk_app_id": "1:1094984206211:android:17bd7fd32ca39e748598b6",
        "android_client_info": {
          "package_name": "com.softech.ccpatient"
        }
      },
      "oauth_client": [
        {
          "client_id": "1094984206211-f02psb7bgne6mmnubada2elev5jb0pst.apps.googleusercontent.com",
          "client_type": 1,
          "android_info": {
            "package_name": "com.softech.ccpatient",
            "certificate_hash": "c971aad7baa3f63520df6a2b8f2da2891bcdd27a"
          }
        },
        {
          "client_id": "1094984206211-rboc3ba55dg698msmuvsi5da8t4jlh75.apps.googleusercontent.com",
          "client_type": 3
        }
      ],
      "api_key": [
        {
          "current_key": "AIzaSyDKYB5AaocWm_dB3BEGP486wZBIAtXEMYU"
        }
      ],
      "services": {
        "appinvite_service": {
          "other_platform_oauth_client": [
            {
              "client_id": "1094984206211-rboc3ba55dg698msmuvsi5da8t4jlh75.apps.googleusercontent.com",
              "client_type": 3
            },
            {
              "client_id": "1094984206211-0thf176dms9lmcm6iggc3r823pcqptkm.apps.googleusercontent.com",
              "client_type": 2,
              "ios_info": {
                "bundle_id": "com.softech.ccpatient"
              }
            }
          ]
        }
      }
    },
    {
      "client_info": {
        "mobilesdk_app_id": "1:1094984206211:android:4ed1719c9f9da52e8598b6",
        "android_client_info": {
          "package_name": "com.softech.ccpatient"
        }
      },
      "oauth_client": [
        {
          "client_id": "1094984206211-3gd2gmi26bpqjoubrcdhbf3e74ihirip.apps.googleusercontent.com",
          "client_type": 1,
          "android_info": {
            "package_name": "com.softech.ccpatient",
            "certificate_hash": "342d7464e2400b20a0a93e8d078dd98a439bf007"
          }
        },
        {
          "client_id": "1094984206211-ta9mkabkvsl0ha788a4ldlhb0btkkb3n.apps.googleusercontent.com",
          "client_type": 1,
          "android_info": {
            "package_name": "com.softech.ccpatient",
            "certificate_hash": "c971aad7baa3f63520df6a2b8f2da2891bcdd27a"
          }
        },
        {
          "client_id": "1094984206211-rboc3ba55dg698msmuvsi5da8t4jlh75.apps.googleusercontent.com",
          "client_type": 3
        }
      ],
      "api_key": [
        {
          "current_key": "AIzaSyDKYB5AaocWm_dB3BEGP486wZBIAtXEMYU"
        }
      ],
      "services": {
        "appinvite_service": {
          "other_platform_oauth_client": [
            {
              "client_id": "1094984206211-rboc3ba55dg698msmuvsi5da8t4jlh75.apps.googleusercontent.com",
              "client_type": 3
            },
            {
              "client_id": "1094984206211-0thf176dms9lmcm6iggc3r823pcqptkm.apps.googleusercontent.com",
              "client_type": 2,
              "ios_info": {
                "bundle_id": "com.softech.ccpatient"
              }
            }
          ]
        }
      }
    },
    {
      "client_info": {
        "mobilesdk_app_id": "1:1094984206211:android:b1dc4f37930e1d6d8598b6",
        "android_client_info": {
          "package_name": "com.softech.ccpatient"
        }
      },
      "oauth_client": [
        {
          "client_id": "1094984206211-opd80qlmftjducplr8dojlsqvt6f5vsi.apps.googleusercontent.com",
          "client_type": 1,
          "android_info": {
            "package_name": "com.softech.ccpatient",
            "certificate_hash": "c971aad7baa3f63520df6a2b8f2da2891bcdd27a"
          }
        },
        {
          "client_id": "1094984206211-rboc3ba55dg698msmuvsi5da8t4jlh75.apps.googleusercontent.com",
          "client_type": 3
        }
      ],
      "api_key": [
        {
          "current_key": "AIzaSyDKYB5AaocWm_dB3BEGP486wZBIAtXEMYU"
        }
      ],
      "services": {
        "appinvite_service": {
          "other_platform_oauth_client": [
            {
              "client_id": "1094984206211-rboc3ba55dg698msmuvsi5da8t4jlh75.apps.googleusercontent.com",
              "client_type": 3
            },
            {
              "client_id": "1094984206211-0thf176dms9lmcm6iggc3r823pcqptkm.apps.googleusercontent.com",
              "client_type": 2,
              "ios_info": {
                "bundle_id": "com.softech.ccpatient"
              }
            }
          ]
        }
      }
    },
    {
      "client_info": {
        "mobilesdk_app_id": "1:1094984206211:android:1065a111d3ed8b7d8598b6",
        "android_client_info": {
          "package_name": "com.softech.ccpatient.local"
        }
      },
      "oauth_client": [
        {
          "client_id": "1094984206211-3ifhrcoluhvrlflh86icpa6ov7p2limg.apps.googleusercontent.com",
          "client_type": 1,
          "android_info": {
            "package_name": "com.softech.ccpatient.local",
            "certificate_hash": "7610be75bf61f880b7a38caffd4ec7320766b09b"
          }
        },
        {
          "client_id": "1094984206211-rboc3ba55dg698msmuvsi5da8t4jlh75.apps.googleusercontent.com",
          "client_type": 3
        }
      ],
      "api_key": [
        {
          "current_key": "AIzaSyDKYB5AaocWm_dB3BEGP486wZBIAtXEMYU"
        }
      ],
      "services": {
        "appinvite_service": {
          "other_platform_oauth_client": [
            {
              "client_id": "1094984206211-rboc3ba55dg698msmuvsi5da8t4jlh75.apps.googleusercontent.com",
              "client_type": 3
            },
            {
              "client_id": "1094984206211-0thf176dms9lmcm6iggc3r823pcqptkm.apps.googleusercontent.com",
              "client_type": 2,
              "ios_info": {
                "bundle_id": "com.softech.ccpatient"
              }
            }
          ]
        }
      }
    }
  ],
  "configuration_version": "1"
}